\relax 
\catcode `"\active 
\select@language{polish}
\@writefile{toc}{\select@language{polish}}
\@writefile{lof}{\select@language{polish}}
\@writefile{lot}{\select@language{polish}}
\@writefile{toc}{\contentsline {section}{\numberline {I}Wst\IeC {\k e}p}{1}}
\newlabel{rozdzial:Wstep}{{I}{1}}
\@writefile{toc}{\contentsline {section}{\numberline {II}Podzia\IeC {\l } dron\IeC {\'o}w}{1}}
\newlabel{rozdzial:Podzial_dronow}{{II}{1}}
\@writefile{toc}{\contentsline {subsection}{\numberline {\unhbox \voidb@x \hbox {II-A}}Klasyfikacja wed\IeC {\l }ug masy}{1}}
\@writefile{toc}{\contentsline {subsection}{\numberline {\unhbox \voidb@x \hbox {II-B}}Klasyfikacja wed\IeC {\l }ug zastosowania}{1}}
\@writefile{lof}{\contentsline {figure}{\numberline {1}{\ignorespaces Wojskowy dron\relax }}{1}}
\@writefile{lof}{\contentsline {figure}{\numberline {2}{\ignorespaces Dron do u\IeC {\.z}ytku prywatnego\relax }}{1}}
\@writefile{toc}{\contentsline {section}{\numberline {III}Model symulacyjny}{1}}
\newlabel{rozdzial:Model_symulacyjny}{{III}{1}}
\@writefile{lof}{\contentsline {figure}{\numberline {3}{\ignorespaces Pe\IeC {\l }ny model uk\IeC {\l }adu.\relax }}{1}}
\providecommand*\caption@xref[2]{\@setref\relax\@undefined{#1}}
\newlabel{fig:05_underwater}{{3}{1}}
\@writefile{toc}{\contentsline {section}{\numberline {IV}Silnik DC}{1}}
\newlabel{rozdzial:Dynamika}{{IV}{1}}
\@writefile{lof}{\contentsline {figure}{\numberline {4}{\ignorespaces Model robota, kt\IeC {\'o}ry zostanie poddany modelowaniu.\relax }}{1}}
\newlabel{fig:08_dynamics}{{4}{1}}
\newlabel{eq:energy_1}{{1}{1}}
\newlabel{eq:energy_2}{{6}{1}}
\bibstyle{IEEEtran}
\bibdata{IEEEabrv,mybibfile}
\@writefile{toc}{\contentsline {section}{\numberline {V}Symulacja pracy modelu}{2}}
\newlabel{rozdzial:Model}{{V}{2}}
\newlabel{eq:lagrange_1_s}{{7}{2}}
\newlabel{eq: lagrange_2_s}{{8}{2}}
\newlabel{eq:transfer_function}{{9}{2}}
\newlabel{eq:motor_voltage_s}{{10}{2}}
\newlabel{eq:motor_torgue_s}{{11}{2}}
\newlabel{eq:motor_noise_s}{{12}{2}}
\newlabel{eq:M_obc}{{13}{2}}
\@writefile{toc}{\contentsline {section}{\numberline {VI}Wnioski}{2}}
\@writefile{toc}{\contentsline {section}{Literatura}{2}}
\@writefile{lof}{\contentsline {figure}{\numberline {5}{\ignorespaces Model uk\IeC {\l }adu regulacji robota kulistego z mo\IeC {\.z}liwo\IeC {\'s}ci\IeC {\k a} zadania wymuszenia skokowego lub wymuszenia liniowo narastaj\IeC {\k a}cego.\relax }}{3}}
\newlabel{fig:13_model_reg}{{5}{3}}
\@writefile{lof}{\contentsline {figure}{\numberline {6}{\ignorespaces Odpowied\IeC {\'z} obiektu na wymuszenie impulsowe o amplitudzie 3 i czasie trwania impulsu 1s.\relax }}{3}}
\newlabel{fig:09_odpowiedz}{{6}{3}}
