\relax 
\catcode `"\active 
\select@language{polish}
\@writefile{toc}{\select@language{polish}}
\@writefile{lof}{\select@language{polish}}
\@writefile{lot}{\select@language{polish}}
\@writefile{toc}{\contentsline {section}{\numberline {I}Wst\IeC {\k e}p}{1}}
\newlabel{rozdzial:Wstep}{{I}{1}}
\@writefile{toc}{\contentsline {section}{\numberline {II}Podzia\IeC {\l } dron\IeC {\'o}w}{1}}
\newlabel{rozdzial:Podzial_dronow}{{II}{1}}
\@writefile{toc}{\contentsline {subsection}{\numberline {\unhbox \voidb@x \hbox {II-A}}Klasyfikacja wed\IeC {\l }ug masy}{1}}
\@writefile{toc}{\contentsline {subsection}{\numberline {\unhbox \voidb@x \hbox {II-B}}Klasyfikacja wed\IeC {\l }ug zastosowania}{1}}
\@writefile{lof}{\contentsline {figure}{\numberline {1}{\ignorespaces Wojskowy dron\relax }}{1}}
\@writefile{lof}{\contentsline {figure}{\numberline {2}{\ignorespaces Dron do u\IeC {\.z}ytku prywatnego\relax }}{2}}
\@writefile{toc}{\contentsline {subsection}{\numberline {\unhbox \voidb@x \hbox {II-C}}Klasyfikacja wed\IeC {\l }ug budowy}{2}}
\@writefile{lof}{\contentsline {figure}{\numberline {3}{\ignorespaces Podzia\IeC {\l } qudrocopter\IeC {\'o}w ze wzgl\IeC {\k e}du na u\IeC {\l }o\IeC {\.z}enie skrzyde\IeC {\l }.\relax }}{2}}
\providecommand*\caption@xref[2]{\@setref\relax\@undefined{#1}}
\newlabel{fig:Podzial dron\IeC {\'o}w}{{3}{2}}
\@writefile{toc}{\contentsline {section}{\numberline {III}Model matematyczny}{2}}
\@writefile{lof}{\contentsline {figure}{\numberline {4}{\ignorespaces Uk\IeC {\l }ad globalny oraz uk\IeC {\l }ad zwi\IeC {\k a}zany z dronem.\relax }}{2}}
\newlabel{fig:coordinates_systems}{{4}{2}}
\@writefile{toc}{\contentsline {subsection}{\numberline {\unhbox \voidb@x \hbox {III-A}}Kinematyka}{2}}
\@writefile{toc}{\contentsline {subsection}{\numberline {\unhbox \voidb@x \hbox {III-B}}Dynamika}{3}}
\@writefile{toc}{\contentsline {section}{\numberline {IV}Model symulacyjny}{3}}
\newlabel{rozdzial:Model_symulacyjny}{{IV}{3}}
\@writefile{lof}{\contentsline {figure}{\numberline {5}{\ignorespaces Pe\IeC {\l }ny model uk\IeC {\l }adu.\relax }}{4}}
\newlabel{fig:13_model_reg}{{5}{4}}
\@writefile{toc}{\contentsline {section}{\numberline {V}Silnik DC}{4}}
\newlabel{rozdzial:Dynamika}{{V}{4}}
\@writefile{toc}{\contentsline {subsection}{\numberline {\unhbox \voidb@x \hbox {V-A}}Model matematyczny silnika DC}{4}}
\@writefile{toc}{\contentsline {subsection}{\numberline {\unhbox \voidb@x \hbox {V-B}}Model symulacyjny silnika DC}{5}}
\@writefile{lof}{\contentsline {figure}{\numberline {6}{\ignorespaces Model symulacyjny silnika DC.\relax }}{5}}
\newlabel{fig:Podzial dron\IeC {\'o}w}{{6}{5}}
\@writefile{toc}{\contentsline {subsection}{\numberline {\unhbox \voidb@x \hbox {V-C}}Sterowanie silnikami DC}{5}}
\@writefile{toc}{\contentsline {section}{\numberline {VI}Symulacja pracy modelu}{5}}
\newlabel{rozdzial:Model}{{VI}{5}}
\@writefile{lof}{\contentsline {figure}{\numberline {7}{\ignorespaces Trajektoria lotu quadrokoptera.\relax }}{5}}
\newlabel{fig:13_model_reg}{{7}{5}}
\@writefile{toc}{\contentsline {section}{\numberline {VII}Wnioski}{5}}
\citation{*}
\bibstyle{IEEEtran}
\bibdata{nasza_bibka}
\bibcite{luukkonen2011modelling}{1}
\bibcite{nemati2014modeling}{2}
\bibcite{gibiansky2012quadcopter}{3}
\@writefile{lof}{\contentsline {figure}{\numberline {8}{\ignorespaces Trajektoria lotu quadrokoptera.\relax }}{6}}
\newlabel{fig:13_model_reg}{{8}{6}}
\@writefile{lof}{\contentsline {figure}{\numberline {9}{\ignorespaces Odpowied\IeC {\'z} obiektu na wymuszenie impulsowe o amplitudzie 3 i czasie trwania impulsu 1s.\relax }}{6}}
\newlabel{fig:09_odpowiedz}{{9}{6}}
\@writefile{toc}{\contentsline {section}{Literatura}{6}}
