\relax 
\catcode `"\active 
\citation{mainreview}
\citation{omniwheel}
\citation{mainreview}
\citation{four_pendulum}
\citation{underwater}
\citation{amfibia}
\citation{rollroller}
\select@language{polish}
\@writefile{toc}{\select@language{polish}}
\@writefile{lof}{\select@language{polish}}
\@writefile{lot}{\select@language{polish}}
\@writefile{toc}{\contentsline {section}{\numberline {I}Wst\IeC {\k e}p}{1}}
\newlabel{rozdzial:Wstep}{{I}{1}}
\@writefile{toc}{\contentsline {section}{\numberline {II}Przegl\IeC {\k a}d obecnych rozwi\IeC {\k a}za\IeC {\'n}}{1}}
\newlabel{rozdzial:Przeglad_rozwiazan}{{II}{1}}
\@writefile{toc}{\contentsline {subsection}{\numberline {\unhbox \voidb@x \hbox {II-A}}Roboty z ko\IeC {\l }em nap\IeC {\k e}dowym}{1}}
\@writefile{lof}{\contentsline {figure}{\numberline {1}{\ignorespaces Struktura robota kulistego z jednym ko\IeC {\l }em nap\IeC {\k e}dowym.\relax }}{1}}
\providecommand*\caption@xref[2]{\@setref\relax\@undefined{#1}}
\newlabel{fig:01_simple_wheel}{{1}{1}}
\@writefile{lof}{\contentsline {figure}{\numberline {2}{\ignorespaces Struktura robota kulistego z ko\IeC {\l }em omnikierunkowym.\relax }}{1}}
\newlabel{fig:02_double_wheel}{{2}{1}}
\@writefile{toc}{\contentsline {subsection}{\numberline {\unhbox \voidb@x \hbox {II-B}}Roboty z wahad\IeC {\l }em jako elementem nap\IeC {\k e}dzaj\IeC {\k a}cym}{1}}
\@writefile{lof}{\contentsline {figure}{\numberline {3}{\ignorespaces Koncepcja robota z nap\IeC {\k e}dzaj\IeC {\k a}cym wahad\IeC {\l }em.\relax }}{1}}
\newlabel{fig:03_single_pendulum}{{3}{1}}
\@writefile{lof}{\contentsline {figure}{\numberline {4}{\ignorespaces Model robota z czterema wahad\IeC {\l }ami.\relax }}{1}}
\newlabel{fig:04_four_pendulum}{{4}{1}}
\@writefile{toc}{\contentsline {subsection}{\numberline {\unhbox \voidb@x \hbox {II-C}}Roboty o r\IeC {\'o}\IeC {\.z}nej konstrukcji}{1}}
\citation{mainsource}
\@writefile{lof}{\contentsline {figure}{\numberline {5}{\ignorespaces Model robota podwodnego.\relax }}{2}}
\newlabel{fig:05_underwater}{{5}{2}}
\@writefile{lof}{\contentsline {figure}{\numberline {6}{\ignorespaces Model robota podwodnego.\relax }}{2}}
\newlabel{fig:06_amphibia}{{6}{2}}
\@writefile{lof}{\contentsline {figure}{\numberline {7}{\ignorespaces Model robota kulistego wykorzystuj\IeC {\k a}cego do poruszania si\IeC {\k e} prawa mechaniki p\IeC {\l }yn\IeC {\'o}w.\relax }}{2}}
\newlabel{fig:07_rollroller}{{7}{2}}
\@writefile{toc}{\contentsline {section}{\numberline {III}Dynamika ruchu robota}{2}}
\newlabel{rozdzial:Dynamika}{{III}{2}}
\@writefile{lof}{\contentsline {figure}{\numberline {8}{\ignorespaces Model robota, kt\IeC {\'o}ry zostanie poddany modelowaniu.\relax }}{2}}
\newlabel{fig:08_dynamics}{{8}{2}}
\newlabel{eq:energy_1}{{1}{2}}
\newlabel{eq:energy_2}{{6}{2}}
\newlabel{eq:lagrange_1}{{8}{2}}
\newlabel{eq:lagrange_2}{{9}{2}}
\newlabel{eq:torque}{{10}{2}}
\newlabel{eq:lagrange_second_1}{{11}{2}}
\newlabel{eq:lagrange_second_2}{{12}{2}}
\newlabel{eq:motor_voltage}{{13}{2}}
\newlabel{eq:motor_torque}{{14}{2}}
\newlabel{eq:motor_noise}{{15}{2}}
\newlabel{eq:lagrange_linear_1}{{16}{3}}
\newlabel{eq:lagrange_linear_2}{{17}{3}}
\@writefile{toc}{\contentsline {section}{\numberline {IV}Model robota}{3}}
\newlabel{rozdzial:Model}{{IV}{3}}
\newlabel{eq:lagrange_1_s}{{18}{3}}
\newlabel{eq: lagrange_2_s}{{19}{3}}
\newlabel{eq:transfer_function}{{20}{3}}
\newlabel{eq:motor_voltage_s}{{21}{3}}
\newlabel{eq:motor_torgue_s}{{22}{3}}
\newlabel{eq:motor_noise_s}{{23}{3}}
\newlabel{eq:M_obc}{{24}{3}}
\@writefile{toc}{\contentsline {section}{\numberline {V}Uk\IeC {\l }ad regulacji}{3}}
\@writefile{toc}{\contentsline {section}{\numberline {VI}Wnioski}{3}}
\bibstyle{IEEEtran}
\bibdata{IEEEabrv,mybibfile}
\bibcite{mainreview}{1}
\bibcite{omniwheel}{2}
\bibcite{four_pendulum}{3}
\bibcite{underwater}{4}
\bibcite{amfibia}{5}
\bibcite{rollroller}{6}
\bibcite{mainsource}{7}
\@writefile{lof}{\contentsline {figure}{\numberline {9}{\ignorespaces Model uk\IeC {\l }adu regulacji robota kulistego z mo\IeC {\.z}liwo\IeC {\'s}ci\IeC {\k a} zadania wymuszenia skokowego lub wymuszenia liniowo narastaj\IeC {\k a}cego.\relax }}{4}}
\newlabel{fig:13_model_reg}{{9}{4}}
\@writefile{lof}{\contentsline {figure}{\numberline {10}{\ignorespaces Odpowied\IeC {\'z} obiektu na wymuszenie impulsowe o amplitudzie 3 i czasie trwania impulsu 1s.\relax }}{4}}
\newlabel{fig:09_odpowiedz}{{10}{4}}
\@writefile{lof}{\contentsline {figure}{\numberline {11}{\ignorespaces Odpowied\IeC {\'z} uk\IeC {\l }adu z regulatorem PID na wymuszenie skokowe o amplitudzie 3.\relax }}{4}}
\newlabel{fig:16_jakies_gowno}{{11}{4}}
\@writefile{lof}{\contentsline {figure}{\numberline {12}{\ignorespaces Odpowied\IeC {\'z} uk\IeC {\l }adu z regulatorem zmiennych stanu na wymuszenie skokowe o amplitudzie 3.\relax }}{4}}
\newlabel{fig:14_odp_skok_reg_1}{{12}{4}}
\@writefile{lof}{\contentsline {figure}{\numberline {13}{\ignorespaces Odpowied\IeC {\'z} uk\IeC {\l }adu z regulatorem zmiennych stanu na wymuszenie liniowo narastaj\IeC {\k a}ce.\relax }}{4}}
\newlabel{fig:15_odp_zbocze_reg_1}{{13}{4}}
\@writefile{lof}{\contentsline {figure}{\numberline {14}{\ignorespaces Odpowied\IeC {\'z} uk\IeC {\l }adu z regulatorem zmiennych stanu z akcj\IeC {\k a} ca\IeC {\l }kuj\IeC {\k a}c\IeC {\k a} na wymuszenie skokowe o amplitudzie 3.\relax }}{4}}
\newlabel{fig:17_jakies_gowno}{{14}{4}}
\@writefile{toc}{\contentsline {section}{Literatura}{4}}
